alt_proposal.qmd
…
There seems to be roughly similar depth in data for women and men.

Age:

df %>%
   group_by(Alter_Name) %>%
   summarise(
     N      = n(),
   ) %>%
   print()

# A tibble: 52 × 2
   Alter_Name      N
   <chr>       <int>
 1 11-13 Jahre   134
 2 14-17 Jahre   134
 3 15-24 Jahre   272
 4 15-29 Jahre   441
 5 15-59 Jahre   234
 6 18-24 Jahre    60
 7 18-29 Jahre   695
 8 18-34 Jahre    26
 9 18-44 Jahre   120
10 20-24 Jahre    10
# ℹ 42 more rows
…
